127.0.0.1 - - [18/Nov/2019:13:25:30 +0100] "GET / HTTP/1.1" 200 11415
127.0.0.1 - - [18/Nov/2019:13:25:30 +0100] "GET /tomcat.css HTTP/1.1" 200 5931
127.0.0.1 - - [18/Nov/2019:13:25:30 +0100] "GET /tomcat.png HTTP/1.1" 200 5103
127.0.0.1 - - [18/Nov/2019:13:25:30 +0100] "GET /bg-nav.png HTTP/1.1" 200 1401
127.0.0.1 - - [18/Nov/2019:13:25:30 +0100] "GET /asf-logo-wide.svg HTTP/1.1" 200 27530
127.0.0.1 - - [18/Nov/2019:13:25:30 +0100] "GET /bg-upper.png HTTP/1.1" 200 3103
127.0.0.1 - - [18/Nov/2019:13:25:30 +0100] "GET /bg-middle.png HTTP/1.1" 200 1918
127.0.0.1 - - [18/Nov/2019:13:25:30 +0100] "GET /bg-button.png HTTP/1.1" 200 713
127.0.0.1 - - [18/Nov/2019:13:25:30 +0100] "GET /favicon.ico HTTP/1.1" 200 21630
127.0.0.1 - - [18/Nov/2019:13:25:57 +0100] "GET / HTTP/1.1" 200 11415
127.0.0.1 - - [18/Nov/2019:13:25:57 +0100] "GET /tomcat.css HTTP/1.1" 200 5931
127.0.0.1 - - [18/Nov/2019:13:25:57 +0100] "GET /tomcat.png HTTP/1.1" 200 5103
127.0.0.1 - - [18/Nov/2019:13:25:57 +0100] "GET /favicon.ico HTTP/1.1" 200 21630
127.0.0.1 - - [18/Nov/2019:13:25:57 +0100] "GET /bg-nav.png HTTP/1.1" 200 1401
127.0.0.1 - - [18/Nov/2019:13:25:57 +0100] "GET /asf-logo-wide.svg HTTP/1.1" 200 27530
127.0.0.1 - - [18/Nov/2019:13:25:57 +0100] "GET /bg-upper.png HTTP/1.1" 200 3103
127.0.0.1 - - [18/Nov/2019:13:25:57 +0100] "GET /bg-middle.png HTTP/1.1" 200 1918
127.0.0.1 - - [18/Nov/2019:13:25:57 +0100] "GET /bg-button.png HTTP/1.1" 200 713
