[
 {
   "FarmID": 1,
   "Latitude": 53.5110324876222,
   "Longitude": 6.82328778762223,
   "Date": "19/10/2017",
   "Contamination": false
 },
 {
   "FarmID": 1,
   "Latitude": 53.5110324876222,
   "Longitude": 6.82328778762223,
   "Date": "25/02/2018",
   "Contamination": false
 },
 {
   "FarmID": 1,
   "Latitude": 53.5110324876222,
   "Longitude": 6.82328778762223,
   "Date": "04/07/2018",
   "Contamination": false
 },
 {
   "FarmID": 1,
   "Latitude": 53.5110324876222,
   "Longitude": 6.82328778762223,
   "Date": "08/10/2018",
   "Contamination": false
 },
 {
   "FarmID": 1,
   "Latitude": 53.5110324876222,
   "Longitude": 6.82328778762223,
   "Date": "08/02/2019",
   "Contamination": true
 },
 {
   "FarmID": 1,
   "Latitude": 53.5110324876222,
   "Longitude": 6.82328778762223,
   "Date": "05/06/2019",
   "Contamination": false
 },
 {
   "FarmID": 2,
   "Latitude": 53.4842166876222,
   "Longitude": 6.96560708762223,
   "Date": "22/10/2017",
   "Contamination": true
 },
 {
   "FarmID": 2,
   "Latitude": 53.4842166876222,
   "Longitude": 6.96560708762223,
   "Date": "14/02/2018",
   "Contamination": false
 },
 {
   "FarmID": 2,
   "Latitude": 53.4842166876222,
   "Longitude": 6.96560708762223,
   "Date": "10/07/2018",
   "Contamination": false
 },
 {
   "FarmID": 2,
   "Latitude": 53.4842166876222,
   "Longitude": 6.96560708762223,
   "Date": "21/10/2018",
   "Contamination": false
 },
 {
   "FarmID": 2,
   "Latitude": 53.4842166876222,
   "Longitude": 6.96560708762223,
   "Date": "21/02/2019",
   "Contamination": false
 },
 {
   "FarmID": 2,
   "Latitude": 53.4842166876222,
   "Longitude": 6.96560708762223,
   "Date": "06/06/2019",
   "Contamination": false
 },
 {
   "FarmID": 2,
   "Latitude": 53.4842166876222,
   "Longitude": 6.96560708762223,
   "Date": "15/06/2017",
   "Contamination": false
 },
 {
   "FarmID": 2,
   "Latitude": 53.4842166876222,
   "Longitude": 6.96560708762223,
   "Date": "22/10/2017",
   "Contamination": true
 },
 {
   "FarmID": 2,
   "Latitude": 53.4842166876222,
   "Longitude": 6.96560708762223,
   "Date": "14/02/2018",
   "Contamination": false
 },
 {
   "FarmID": 2,
   "Latitude": 53.4842166876222,
   "Longitude": 6.96560708762223,
   "Date": "10/07/2018",
   "Contamination": false
 },
 {
   "FarmID": 2,
   "Latitude": 53.4842166876222,
   "Longitude": 6.96560708762223,
   "Date": "21/10/2018",
   "Contamination": false
 },
 {
   "FarmID": 2,
   "Latitude": 53.4842166876222,
   "Longitude": 6.96560708762223,
   "Date": "21/02/2019",
   "Contamination": false
 },
 {
   "FarmID": 3,
   "Latitude": 53.5918360876222,
   "Longitude": 6.79829538762223,
   "Date": "23/06/2017",
   "Contamination": false
 },
 {
   "FarmID": 3,
   "Latitude": 53.5918360876222,
   "Longitude": 6.79829538762223,
   "Date": "27/10/2017",
   "Contamination": false
 },
 {
   "FarmID": 3,
   "Latitude": 53.5918360876222,
   "Longitude": 6.79829538762223,
   "Date": "21/02/2018",
   "Contamination": true
 },
 {
   "FarmID": 3,
   "Latitude": 53.5918360876222,
   "Longitude": 6.79829538762223,
   "Date": "27/06/2018",
   "Contamination": false
 },
 {
   "FarmID": 3,
   "Latitude": 53.5918360876222,
   "Longitude": 6.79829538762223,
   "Date": "16/10/2018",
   "Contamination": false
 },
 {
   "FarmID": 3,
   "Latitude": 53.5918360876222,
   "Longitude": 6.79829538762223,
   "Date": "25/02/2019",
   "Contamination": false
 },
 {
   "FarmID": 4,
   "Latitude": 53.5119166876222,
   "Longitude": 6.88871508762223,
   "Date": "22/10/2017",
   "Contamination": false
 },
 {
   "FarmID": 4,
   "Latitude": 53.5119166876222,
   "Longitude": 6.88871508762223,
   "Date": "04/02/2018",
   "Contamination": false
 },
 {
   "FarmID": 4,
   "Latitude": 53.5119166876222,
   "Longitude": 6.88871508762223,
   "Date": "04/07/2018",
   "Contamination": false
 },
 {
   "FarmID": 4,
   "Latitude": 53.5119166876222,
   "Longitude": 6.88871508762223,
   "Date": "08/10/2018",
   "Contamination": false
 },
 {
   "FarmID": 4,
   "Latitude": 53.5119166876222,
   "Longitude": 6.88871508762223,
   "Date": "08/02/2019",
   "Contamination": false
 },
 {
   "FarmID": 4,
   "Latitude": 53.5119166876222,
   "Longitude": 6.88871508762223,
   "Date": "05/06/2019",
   "Contamination": false
 },
 {
   "FarmID": 5,
   "Latitude": 53.5767035876222,
   "Longitude": 6.80743088762223,
   "Date": "22/10/2017",
   "Contamination": false
 },
 {
   "FarmID": 5,
   "Latitude": 53.5767035876222,
   "Longitude": 6.80743088762223,
   "Date": "04/02/2018",
   "Contamination": false
 },
 {
   "FarmID": 5,
   "Latitude": 53.5767035876222,
   "Longitude": 6.80743088762223,
   "Date": "04/07/2018",
   "Contamination": false
 },
 {
   "FarmID": 5,
   "Latitude": 53.5767035876222,
   "Longitude": 6.80743088762223,
   "Date": "03/10/2018",
   "Contamination": false
 },
 {
   "FarmID": 5,
   "Latitude": 53.5767035876222,
   "Longitude": 6.80743088762223,
   "Date": "06/02/2019",
   "Contamination": false
 },
 {
   "FarmID": 5,
   "Latitude": 53.5767035876222,
   "Longitude": 6.80743088762223,
   "Date": "09/06/2019",
   "Contamination": false
 },
 {
   "FarmID": 6,
   "Latitude": 53.5037732876222,
   "Longitude": 6.89174508762223,
   "Date": "23/10/2017",
   "Contamination": false
 },
 {
   "FarmID": 6,
   "Latitude": 53.5037732876222,
   "Longitude": 6.89174508762223,
   "Date": "02/02/2018",
   "Contamination": false
 },
 {
   "FarmID": 6,
   "Latitude": 53.5037732876222,
   "Longitude": 6.89174508762223,
   "Date": "26/06/2018",
   "Contamination": false
 },
 {
   "FarmID": 6,
   "Latitude": 53.5037732876222,
   "Longitude": 6.89174508762223,
   "Date": "15/10/2018",
   "Contamination": false
 },
 {
   "FarmID": 6,
   "Latitude": 53.5037732876222,
   "Longitude": 6.89174508762223,
   "Date": "18/02/2019",
   "Contamination": false
 },
 {
   "FarmID": 6,
   "Latitude": 53.5037732876222,
   "Longitude": 6.89174508762223,
   "Date": "05/06/2019",
   "Contamination": false
 },
 {
   "FarmID": 7,
   "Latitude": 53.4782883876222,
   "Longitude": 6.99207408762223,
   "Date": "04/06/2017",
   "Contamination": false
 },
 {
   "FarmID": 7,
   "Latitude": 53.4782883876222,
   "Longitude": 6.99207408762223,
   "Date": "26/10/2017",
   "Contamination": false
 },
 {
   "FarmID": 7,
   "Latitude": 53.4782883876222,
   "Longitude": 6.99207408762223,
   "Date": "17/02/2018",
   "Contamination": false
 },
 {
   "FarmID": 7,
   "Latitude": 53.4782883876222,
   "Longitude": 6.99207408762223,
   "Date": "11/07/2018",
   "Contamination": false
 },
 {
   "FarmID": 7,
   "Latitude": 53.4782883876222,
   "Longitude": 6.99207408762223,
   "Date": "20/10/2018",
   "Contamination": true
 },
 {
   "FarmID": 7,
   "Latitude": 53.4782883876222,
   "Longitude": 6.99207408762223,
   "Date": "20/02/2019",
   "Contamination": false
 },
 {
   "FarmID": 8,
   "Latitude": 53.5275850876222,
   "Longitude": 6.65176948762223,
   "Date": "14/06/2017",
   "Contamination": false
 },
 {
   "FarmID": 8,
   "Latitude": 53.5275850876222,
   "Longitude": 6.65176948762223,
   "Date": "09/10/2017",
   "Contamination": false
 },
 {
   "FarmID": 8,
   "Latitude": 53.5275850876222,
   "Longitude": 6.65176948762223,
   "Date": "21/02/2018",
   "Contamination": false
 },
 {
   "FarmID": 8,
   "Latitude": 53.5275850876222,
   "Longitude": 6.65176948762223,
   "Date": "27/06/2018",
   "Contamination": false
 },
 {
   "FarmID": 8,
   "Latitude": 53.5275850876222,
   "Longitude": 6.65176948762223,
   "Date": "10/10/2018",
   "Contamination": false
 },
 {
   "FarmID": 8,
   "Latitude": 53.5275850876222,
   "Longitude": 6.65176948762223,
   "Date": "25/02/2019",
   "Contamination": false
 },
 {
   "FarmID": 9,
   "Latitude": 53.4361208876222,
   "Longitude": 6.88284928762223,
   "Date": "21/06/2017",
   "Contamination": false
 },
 {
   "FarmID": 9,
   "Latitude": 53.4361208876222,
   "Longitude": 6.88284928762223,
   "Date": "25/10/2017",
   "Contamination": false
 },
 {
   "FarmID": 9,
   "Latitude": 53.4361208876222,
   "Longitude": 6.88284928762223,
   "Date": "13/02/2018",
   "Contamination": false
 },
 {
   "FarmID": 9,
   "Latitude": 53.4361208876222,
   "Longitude": 6.88284928762223,
   "Date": "23/06/2018",
   "Contamination": false
 },
 {
   "FarmID": 9,
   "Latitude": 53.4361208876222,
   "Longitude": 6.88284928762223,
   "Date": "21/10/2018",
   "Contamination": false
 },
 {
   "FarmID": 9,
   "Latitude": 53.4361208876222,
   "Longitude": 6.88284928762223,
   "Date": "21/02/2019",
   "Contamination": false
 },
 {
   "FarmID": 10,
   "Latitude": 53.4983826876222,
   "Longitude": 6.79306178762223,
   "Date": "22/10/2017",
   "Contamination": false
 },
 {
   "FarmID": 10,
   "Latitude": 53.4983826876222,
   "Longitude": 6.79306178762223,
   "Date": "19/02/2018",
   "Contamination": false
 },
 {
   "FarmID": 10,
   "Latitude": 53.4983826876222,
   "Longitude": 6.79306178762223,
   "Date": "04/07/2018",
   "Contamination": false
 },
 {
   "FarmID": 10,
   "Latitude": 53.4983826876222,
   "Longitude": 6.79306178762223,
   "Date": "17/10/2018",
   "Contamination": false
 },
 {
   "FarmID": 10,
   "Latitude": 53.4983826876222,
   "Longitude": 6.79306178762223,
   "Date": "08/02/2019",
   "Contamination": false
 },
 {
   "FarmID": 10,
   "Latitude": 53.4983826876222,
   "Longitude": 6.79306178762223,
   "Date": "05/06/2019",
   "Contamination": true
 },
 {
   "FarmID": 11,
   "Latitude": 53.5134547876222,
   "Longitude": 6.88755688762223,
   "Date": "22/10/2017",
   "Contamination": false
 },
 {
   "FarmID": 11,
   "Latitude": 53.5134547876222,
   "Longitude": 6.88755688762223,
   "Date": "04/02/2018",
   "Contamination": false
 },
 {
   "FarmID": 11,
   "Latitude": 53.5134547876222,
   "Longitude": 6.88755688762223,
   "Date": "22/06/2018",
   "Contamination": false
 },
 {
   "FarmID": 11,
   "Latitude": 53.5134547876222,
   "Longitude": 6.88755688762223,
   "Date": "08/10/2018",
   "Contamination": false
 },
 {
   "FarmID": 11,
   "Latitude": 53.5134547876222,
   "Longitude": 6.88755688762223,
   "Date": "08/02/2019",
   "Contamination": false
 },
 {
   "FarmID": 11,
   "Latitude": 53.5134547876222,
   "Longitude": 6.88755688762223,
   "Date": "05/06/2019",
   "Contamination": false
 },
 {
   "FarmID": 12,
   "Latitude": 53.5307540876222,
   "Longitude": 6.83400648155301,
   "Date": "22/10/2017",
   "Contamination": false
 },
 {
   "FarmID": 12,
   "Latitude": 53.5307540876222,
   "Longitude": 6.83400648155301,
   "Date": "16/02/2018",
   "Contamination": false
 },
 {
   "FarmID": 12,
   "Latitude": 53.5307540876222,
   "Longitude": 6.83400648155301,
   "Date": "04/07/2018",
   "Contamination": false
 },
 {
   "FarmID": 12,
   "Latitude": 53.5307540876222,
   "Longitude": 6.83400648155301,
   "Date": "08/10/2018",
   "Contamination": false
 },
 {
   "FarmID": 12,
   "Latitude": 53.5307540876222,
   "Longitude": 6.83400648155301,
   "Date": "08/02/2019",
   "Contamination": false
 },
 {
   "FarmID": 12,
   "Latitude": 53.5307540876222,
   "Longitude": 6.83400648155301,
   "Date": "11/06/2019",
   "Contamination": false
 },
 {
   "FarmID": 13,
   "Latitude": 53.4859480876222,
   "Longitude": 6.93711708762223,
   "Date": "26/10/2017",
   "Contamination": false
 },
 {
   "FarmID": 13,
   "Latitude": 53.4859480876222,
   "Longitude": 6.93711708762223,
   "Date": "14/02/2018",
   "Contamination": false
 },
 {
   "FarmID": 13,
   "Latitude": 53.4859480876222,
   "Longitude": 6.93711708762223,
   "Date": "08/07/2018",
   "Contamination": false
 },
 {
   "FarmID": 13,
   "Latitude": 53.4859480876222,
   "Longitude": 6.93711708762223,
   "Date": "21/10/2018",
   "Contamination": false
 },
 {
   "FarmID": 13,
   "Latitude": 53.4859480876222,
   "Longitude": 6.93711708762223,
   "Date": "20/02/2019",
   "Contamination": true
 },
 {
   "FarmID": 13,
   "Latitude": 53.4859480876222,
   "Longitude": 6.93711708762223,
   "Date": "06/06/2019",
   "Contamination": true
 },
 {
   "FarmID": 13,
   "Latitude": 53.4859480876222,
   "Longitude": 6.93711708762223,
   "Date": "01/06/2017",
   "Contamination": false
 },
 {
   "FarmID": 13,
   "Latitude": 53.4859480876222,
   "Longitude": 6.93711708762223,
   "Date": "26/10/2017",
   "Contamination": false
 },
 {
   "FarmID": 13,
   "Latitude": 53.4859480876222,
   "Longitude": 6.93711708762223,
   "Date": "14/02/2018",
   "Contamination": false
 },
 {
   "FarmID": 13,
   "Latitude": 53.4859480876222,
   "Longitude": 6.93711708762223,
   "Date": "08/07/2018",
   "Contamination": false
 },
 {
   "FarmID": 13,
   "Latitude": 53.4859480876222,
   "Longitude": 6.93711708762223,
   "Date": "21/10/2018",
   "Contamination": false
 },
 {
   "FarmID": 13,
   "Latitude": 53.4859480876222,
   "Longitude": 6.93711708762223,
   "Date": "20/02/2019",
   "Contamination": false
 },
 {
   "FarmID": 14,
   "Latitude": 53.5248833876222,
   "Longitude": 6.90505348762223,
   "Date": "19/10/2017",
   "Contamination": false
 },
 {
   "FarmID": 14,
   "Latitude": 53.5248833876222,
   "Longitude": 6.90505348762223,
   "Date": "25/02/2018",
   "Contamination": false
 },
 {
   "FarmID": 14,
   "Latitude": 53.5248833876222,
   "Longitude": 6.90505348762223,
   "Date": "04/07/2018",
   "Contamination": false
 },
 {
   "FarmID": 14,
   "Latitude": 53.5248833876222,
   "Longitude": 6.90505348762223,
   "Date": "14/10/2018",
   "Contamination": false
 },
 {
   "FarmID": 14,
   "Latitude": 53.5248833876222,
   "Longitude": 6.90505348762223,
   "Date": "05/02/2019",
   "Contamination": false
 },
 {
   "FarmID": 14,
   "Latitude": 53.5248833876222,
   "Longitude": 6.90505348762223,
   "Date": "05/06/2019",
   "Contamination": false
 },
 {
   "FarmID": 15,
   "Latitude": 53.4998421876222,
   "Longitude": 6.96889588762223,
   "Date": "26/10/2017",
   "Contamination": false
 },
 {
   "FarmID": 15,
   "Latitude": 53.4998421876222,
   "Longitude": 6.96889588762223,
   "Date": "14/02/2018",
   "Contamination": false
 },
 {
   "FarmID": 15,
   "Latitude": 53.4998421876222,
   "Longitude": 6.96889588762223,
   "Date": "11/07/2018",
   "Contamination": false
 },
 {
   "FarmID": 15,
   "Latitude": 53.4998421876222,
   "Longitude": 6.96889588762223,
   "Date": "21/10/2018",
   "Contamination": false
 },
 {
   "FarmID": 15,
   "Latitude": 53.4998421876222,
   "Longitude": 6.96889588762223,
   "Date": "21/02/2019",
   "Contamination": false
 },
 {
   "FarmID": 15,
   "Latitude": 53.4998421876222,
   "Longitude": 6.96889588762223,
   "Date": "06/06/2019",
   "Contamination": false
 },
 {
   "FarmID": 15,
   "Latitude": 53.4998421876222,
   "Longitude": 6.96889588762223,
   "Date": "04/06/2017",
   "Contamination": false
 },
 {
   "FarmID": 15,
   "Latitude": 53.4998421876222,
   "Longitude": 6.96889588762223,
   "Date": "26/10/2017",
   "Contamination": false
 },
 {
   "FarmID": 15,
   "Latitude": 53.4998421876222,
   "Longitude": 6.96889588762223,
   "Date": "14/02/2018",
   "Contamination": false
 },
 {
   "FarmID": 15,
   "Latitude": 53.4998421876222,
   "Longitude": 6.96889588762223,
   "Date": "11/07/2018",
   "Contamination": false
 },
 {
   "FarmID": 15,
   "Latitude": 53.4998421876222,
   "Longitude": 6.96889588762223,
   "Date": "21/10/2018",
   "Contamination": false
 },
 {
   "FarmID": 15,
   "Latitude": 53.4998421876222,
   "Longitude": 6.96889588762223,
   "Date": "21/02/2019",
   "Contamination": false
 },
 {
   "FarmID": 16,
   "Latitude": 53.5023775876222,
   "Longitude": 6.89432598762223,
   "Date": "19/10/2017",
   "Contamination": false
 },
 {
   "FarmID": 16,
   "Latitude": 53.5023775876222,
   "Longitude": 6.89432598762223,
   "Date": "25/02/2018",
   "Contamination": false
 },
 {
   "FarmID": 16,
   "Latitude": 53.5023775876222,
   "Longitude": 6.89432598762223,
   "Date": "04/07/2018",
   "Contamination": false
 },
 {
   "FarmID": 16,
   "Latitude": 53.5023775876222,
   "Longitude": 6.89432598762223,
   "Date": "14/10/2018",
   "Contamination": false
 },
 {
   "FarmID": 16,
   "Latitude": 53.5023775876222,
   "Longitude": 6.89432598762223,
   "Date": "05/02/2019",
   "Contamination": false
 },
 {
   "FarmID": 16,
   "Latitude": 53.5023775876222,
   "Longitude": 6.89432598762223,
   "Date": "05/06/2019",
   "Contamination": false
 },
 {
   "FarmID": 17,
   "Latitude": 53.5200188876222,
   "Longitude": 6.79560948762223,
   "Date": "19/10/2017",
   "Contamination": false
 },
 {
   "FarmID": 17,
   "Latitude": 53.5200188876222,
   "Longitude": 6.79560948762223,
   "Date": "25/02/2018",
   "Contamination": false
 },
 {
   "FarmID": 17,
   "Latitude": 53.5200188876222,
   "Longitude": 6.79560948762223,
   "Date": "04/07/2018",
   "Contamination": false
 },
 {
   "FarmID": 17,
   "Latitude": 53.5200188876222,
   "Longitude": 6.79560948762223,
   "Date": "08/10/2018",
   "Contamination": false
 },
 {
   "FarmID": 17,
   "Latitude": 53.5200188876222,
   "Longitude": 6.79560948762223,
   "Date": "08/02/2019",
   "Contamination": false
 },
 {
   "FarmID": 17,
   "Latitude": 53.5200188876222,
   "Longitude": 6.79560948762223,
   "Date": "05/06/2019",
   "Contamination": false
 },
 {
   "FarmID": 18,
   "Latitude": 53.5307540876222,
   "Longitude": 6.83400648155301,
   "Date": "19/10/2017",
   "Contamination": false
 },
 {
   "FarmID": 18,
   "Latitude": 53.5307540876222,
   "Longitude": 6.83400648155301,
   "Date": "25/02/2018",
   "Contamination": false
 },
 {
   "FarmID": 18,
   "Latitude": 53.5307540876222,
   "Longitude": 6.83400648155301,
   "Date": "04/07/2018",
   "Contamination": false
 },
 {
   "FarmID": 18,
   "Latitude": 53.5307540876222,
   "Longitude": 6.83400648155301,
   "Date": "14/10/2018",
   "Contamination": false
 },
 {
   "FarmID": 18,
   "Latitude": 53.5307540876222,
   "Longitude": 6.83400648155301,
   "Date": "05/02/2019",
   "Contamination": false
 },
 {
   "FarmID": 18,
   "Latitude": 53.5307540876222,
   "Longitude": 6.83400648155301,
   "Date": "05/06/2019",
   "Contamination": false
 },
 {
   "FarmID": 19,
   "Latitude": 53.5377857876222,
   "Longitude": 6.88824218762223,
   "Date": "26/06/2017",
   "Contamination": false
 },
 {
   "FarmID": 19,
   "Latitude": 53.5377857876222,
   "Longitude": 6.88824218762223,
   "Date": "09/10/2017",
   "Contamination": false
 },
 {
   "FarmID": 19,
   "Latitude": 53.5377857876222,
   "Longitude": 6.88824218762223,
   "Date": "27/02/2018",
   "Contamination": false
 },
 {
   "FarmID": 19,
   "Latitude": 53.5377857876222,
   "Longitude": 6.88824218762223,
   "Date": "27/06/2018",
   "Contamination": false
 },
 {
   "FarmID": 19,
   "Latitude": 53.5377857876222,
   "Longitude": 6.88824218762223,
   "Date": "16/10/2018",
   "Contamination": true
 },
 {
   "FarmID": 19,
   "Latitude": 53.5377857876222,
   "Longitude": 6.88824218762223,
   "Date": "25/02/2019",
   "Contamination": false
 },
 {
   "FarmID": 20,
   "Latitude": 53.5050026876222,
   "Longitude": 6.83234648762223,
   "Date": "19/10/2017",
   "Contamination": false
 },
 {
   "FarmID": 20,
   "Latitude": 53.5050026876222,
   "Longitude": 6.83234648762223,
   "Date": "25/02/2018",
   "Contamination": false
 },
 {
   "FarmID": 20,
   "Latitude": 53.5050026876222,
   "Longitude": 6.83234648762223,
   "Date": "04/07/2018",
   "Contamination": false
 },
 {
   "FarmID": 20,
   "Latitude": 53.5050026876222,
   "Longitude": 6.83234648762223,
   "Date": "14/10/2018",
   "Contamination": false
 },
 {
   "FarmID": 20,
   "Latitude": 53.5050026876222,
   "Longitude": 6.83234648762223,
   "Date": "05/02/2019",
   "Contamination": false
 },
 {
   "FarmID": 20,
   "Latitude": 53.5050026876222,
   "Longitude": 6.83234648762223,
   "Date": "05/06/2019",
   "Contamination": false
 },
 {
   "FarmID": 21,
   "Latitude": 53.5574763876222,
   "Longitude": 6.91395628762223,
   "Date": "20/10/2017",
   "Contamination": false
 },
 {
   "FarmID": 21,
   "Latitude": 53.5574763876222,
   "Longitude": 6.91395628762223,
   "Date": "21/02/2018",
   "Contamination": false
 },
 {
   "FarmID": 21,
   "Latitude": 53.5574763876222,
   "Longitude": 6.91395628762223,
   "Date": "06/07/2018",
   "Contamination": false
 },
 {
   "FarmID": 21,
   "Latitude": 53.5574763876222,
   "Longitude": 6.91395628762223,
   "Date": "13/10/2018",
   "Contamination": false
 },
 {
   "FarmID": 21,
   "Latitude": 53.5574763876222,
   "Longitude": 6.91395628762223,
   "Date": "19/02/2019",
   "Contamination": false
 },
 {
   "FarmID": 21,
   "Latitude": 53.5574763876222,
   "Longitude": 6.91395628762223,
   "Date": "11/06/2019",
   "Contamination": false
 },
 {
   "FarmID": 22,
   "Latitude": 53.4898531876222,
   "Longitude": 6.94845108762223,
   "Date": "26/10/2017",
   "Contamination": false
 },
 {
   "FarmID": 22,
   "Latitude": 53.4898531876222,
   "Longitude": 6.94845108762223,
   "Date": "14/02/2018",
   "Contamination": false
 },
 {
   "FarmID": 22,
   "Latitude": 53.4898531876222,
   "Longitude": 6.94845108762223,
   "Date": "23/06/2018",
   "Contamination": false
 },
 {
   "FarmID": 22,
   "Latitude": 53.4898531876222,
   "Longitude": 6.94845108762223,
   "Date": "17/10/2018",
   "Contamination": false
 },
 {
   "FarmID": 22,
   "Latitude": 53.4898531876222,
   "Longitude": 6.94845108762223,
   "Date": "21/02/2019",
   "Contamination": false
 },
 {
   "FarmID": 22,
   "Latitude": 53.4898531876222,
   "Longitude": 6.94845108762223,
   "Date": "05/06/2019",
   "Contamination": false
 },
 {
   "FarmID": 22,
   "Latitude": 53.4898531876222,
   "Longitude": 6.94845108762223,
   "Date": "04/06/2017",
   "Contamination": false
 },
 {
   "FarmID": 22,
   "Latitude": 53.4898531876222,
   "Longitude": 6.94845108762223,
   "Date": "26/10/2017",
   "Contamination": false
 },
 {
   "FarmID": 22,
   "Latitude": 53.4898531876222,
   "Longitude": 6.94845108762223,
   "Date": "14/02/2018",
   "Contamination": false
 },
 {
   "FarmID": 22,
   "Latitude": 53.4898531876222,
   "Longitude": 6.94845108762223,
   "Date": "23/06/2018",
   "Contamination": false
 },
 {
   "FarmID": 22,
   "Latitude": 53.4898531876222,
   "Longitude": 6.94845108762223,
   "Date": "17/10/2018",
   "Contamination": false
 },
 {
   "FarmID": 22,
   "Latitude": 53.4898531876222,
   "Longitude": 6.94845108762223,
   "Date": "21/02/2019",
   "Contamination": false
 },
 {
   "FarmID": 23,
   "Latitude": 53.4930017876222,
   "Longitude": 6.91940808762223,
   "Date": "20/10/2017",
   "Contamination": false
 },
 {
   "FarmID": 23,
   "Latitude": 53.4930017876222,
   "Longitude": 6.91940808762223,
   "Date": "08/02/2018",
   "Contamination": false
 },
 {
   "FarmID": 23,
   "Latitude": 53.4930017876222,
   "Longitude": 6.91940808762223,
   "Date": "10/07/2018",
   "Contamination": false
 },
 {
   "FarmID": 23,
   "Latitude": 53.4930017876222,
   "Longitude": 6.91940808762223,
   "Date": "01/10/2018",
   "Contamination": false
 },
 {
   "FarmID": 23,
   "Latitude": 53.4930017876222,
   "Longitude": 6.91940808762223,
   "Date": "04/02/2019",
   "Contamination": false
 },
 {
   "FarmID": 23,
   "Latitude": 53.4930017876222,
   "Longitude": 6.91940808762223,
   "Date": "10/06/2019",
   "Contamination": false
 },
 {
   "FarmID": 24,
   "Latitude": 53.5224106876222,
   "Longitude": 6.80731278762223,
   "Date": "19/10/2017",
   "Contamination": false
 },
 {
   "FarmID": 24,
   "Latitude": 53.5224106876222,
   "Longitude": 6.80731278762223,
   "Date": "25/02/2018",
   "Contamination": false
 },
 {
   "FarmID": 24,
   "Latitude": 53.5224106876222,
   "Longitude": 6.80731278762223,
   "Date": "04/07/2018",
   "Contamination": false
 },
 {
   "FarmID": 24,
   "Latitude": 53.5224106876222,
   "Longitude": 6.80731278762223,
   "Date": "08/10/2018",
   "Contamination": true
 },
 {
   "FarmID": 24,
   "Latitude": 53.5224106876222,
   "Longitude": 6.80731278762223,
   "Date": "05/02/2019",
   "Contamination": false
 },
 {
   "FarmID": 24,
   "Latitude": 53.5224106876222,
   "Longitude": 6.80731278762223,
   "Date": "05/06/2019",
   "Contamination": false
 },
 {
   "FarmID": 25,
   "Latitude": 53.6047923876222,
   "Longitude": 6.99692508762223,
   "Date": "20/10/2017",
   "Contamination": false
 },
 {
   "FarmID": 25,
   "Latitude": 53.6047923876222,
   "Longitude": 6.99692508762223,
   "Date": "08/02/2018",
   "Contamination": true
 },
 {
   "FarmID": 25,
   "Latitude": 53.6047923876222,
   "Longitude": 6.99692508762223,
   "Date": "24/06/2018",
   "Contamination": false
 },
 {
   "FarmID": 25,
   "Latitude": 53.6047923876222,
   "Longitude": 6.99692508762223,
   "Date": "01/10/2018",
   "Contamination": false
 },
 {
   "FarmID": 25,
   "Latitude": 53.6047923876222,
   "Longitude": 6.99692508762223,
   "Date": "08/02/2019",
   "Contamination": false
 },
 {
   "FarmID": 25,
   "Latitude": 53.6047923876222,
   "Longitude": 6.99692508762223,
   "Date": "11/06/2019",
   "Contamination": false
 },
 {
   "FarmID": 26,
   "Latitude": 53.4780430876222,
   "Longitude": 6.97670498762223,
   "Date": "04/06/2017",
   "Contamination": false
 },
 {
   "FarmID": 26,
   "Latitude": 53.4780430876222,
   "Longitude": 6.97670498762223,
   "Date": "23/10/2017",
   "Contamination": false
 },
 {
   "FarmID": 26,
   "Latitude": 53.4780430876222,
   "Longitude": 6.97670498762223,
   "Date": "17/02/2018",
   "Contamination": false
 },
 {
   "FarmID": 26,
   "Latitude": 53.4780430876222,
   "Longitude": 6.97670498762223,
   "Date": "07/07/2018",
   "Contamination": false
 },
 {
   "FarmID": 26,
   "Latitude": 53.4780430876222,
   "Longitude": 6.97670498762223,
   "Date": "21/10/2018",
   "Contamination": false
 },
 {
   "FarmID": 26,
   "Latitude": 53.4780430876222,
   "Longitude": 6.97670498762223,
   "Date": "20/02/2019",
   "Contamination": false
 },
 {
   "FarmID": 27,
   "Latitude": 53.4886013876222,
   "Longitude": 6.79241758762223,
   "Date": "22/10/2017",
   "Contamination": false
 },
 {
   "FarmID": 27,
   "Latitude": 53.4886013876222,
   "Longitude": 6.79241758762223,
   "Date": "16/02/2018",
   "Contamination": false
 },
 {
   "FarmID": 27,
   "Latitude": 53.4886013876222,
   "Longitude": 6.79241758762223,
   "Date": "04/07/2018",
   "Contamination": false
 },
 {
   "FarmID": 27,
   "Latitude": 53.4886013876222,
   "Longitude": 6.79241758762223,
   "Date": "17/10/2018",
   "Contamination": false
 },
 {
   "FarmID": 27,
   "Latitude": 53.4886013876222,
   "Longitude": 6.79241758762223,
   "Date": "08/02/2019",
   "Contamination": false
 },
 {
   "FarmID": 27,
   "Latitude": 53.4886013876222,
   "Longitude": 6.79241758762223,
   "Date": "05/06/2019",
   "Contamination": false
 },
 {
   "FarmID": 28,
   "Latitude": 53.5307540876222,
   "Longitude": 6.83400648155301,
   "Date": "22/10/2017",
   "Contamination": false
 },
 {
   "FarmID": 28,
   "Latitude": 53.5307540876222,
   "Longitude": 6.83400648155301,
   "Date": "16/02/2018",
   "Contamination": false
 },
 {
   "FarmID": 28,
   "Latitude": 53.5307540876222,
   "Longitude": 6.83400648155301,
   "Date": "04/07/2018",
   "Contamination": false
 },
 {
   "FarmID": 28,
   "Latitude": 53.5307540876222,
   "Longitude": 6.83400648155301,
   "Date": "08/10/2018",
   "Contamination": false
 },
 {
   "FarmID": 28,
   "Latitude": 53.5307540876222,
   "Longitude": 6.83400648155301,
   "Date": "08/02/2019",
   "Contamination": false
 },
 {
   "FarmID": 28,
   "Latitude": 53.5307540876222,
   "Longitude": 6.83400648155301,
   "Date": "11/06/2019",
   "Contamination": false
 },
 {
   "FarmID": 29,
   "Latitude": 53.5615615376222,
   "Longitude": 6.81421541587198,
   "Date": "22/10/2017",
   "Contamination": true
 },
 {
   "FarmID": 29,
   "Latitude": 53.5615615376222,
   "Longitude": 6.81421541587198,
   "Date": "19/02/2018",
   "Contamination": false
 },
 {
   "FarmID": 29,
   "Latitude": 53.5615615376222,
   "Longitude": 6.81421541587198,
   "Date": "04/07/2018",
   "Contamination": false
 },
 {
   "FarmID": 29,
   "Latitude": 53.5615615376222,
   "Longitude": 6.81421541587198,
   "Date": "08/10/2018",
   "Contamination": false
 },
 {
   "FarmID": 29,
   "Latitude": 53.5615615376222,
   "Longitude": 6.81421541587198,
   "Date": "05/02/2019",
   "Contamination": false
 },
 {
   "FarmID": 29,
   "Latitude": 53.5615615376222,
   "Longitude": 6.81421541587198,
   "Date": "05/06/2019",
   "Contamination": false
 },
 {
   "FarmID": 30,
   "Latitude": 53.5143894876222,
   "Longitude": 6.88628338762223,
   "Date": "19/10/2017",
   "Contamination": false
 },
 {
   "FarmID": 30,
   "Latitude": 53.5143894876222,
   "Longitude": 6.88628338762223,
   "Date": "25/02/2018",
   "Contamination": false
 },
 {
   "FarmID": 30,
   "Latitude": 53.5143894876222,
   "Longitude": 6.88628338762223,
   "Date": "04/07/2018",
   "Contamination": false
 },
 {
   "FarmID": 30,
   "Latitude": 53.5143894876222,
   "Longitude": 6.88628338762223,
   "Date": "14/10/2018",
   "Contamination": true
 },
 {
   "FarmID": 30,
   "Latitude": 53.5143894876222,
   "Longitude": 6.88628338762223,
   "Date": "05/02/2019",
   "Contamination": false
 },
 {
   "FarmID": 30,
   "Latitude": 53.5143894876222,
   "Longitude": 6.88628338762223,
   "Date": "11/06/2019",
   "Contamination": false
 },
 {
   "FarmID": 31,
   "Latitude": 53.5518011876222,
   "Longitude": 6.81757898762223,
   "Date": "22/10/2017",
   "Contamination": false
 },
 {
   "FarmID": 31,
   "Latitude": 53.5518011876222,
   "Longitude": 6.81757898762223,
   "Date": "25/02/2018",
   "Contamination": false
 },
 {
   "FarmID": 31,
   "Latitude": 53.5518011876222,
   "Longitude": 6.81757898762223,
   "Date": "04/07/2018",
   "Contamination": false
 },
 {
   "FarmID": 31,
   "Latitude": 53.5518011876222,
   "Longitude": 6.81757898762223,
   "Date": "08/10/2018",
   "Contamination": true
 },
 {
   "FarmID": 31,
   "Latitude": 53.5518011876222,
   "Longitude": 6.81757898762223,
   "Date": "05/02/2019",
   "Contamination": false
 },
 {
   "FarmID": 31,
   "Latitude": 53.5518011876222,
   "Longitude": 6.81757898762223,
   "Date": "05/06/2019",
   "Contamination": true
 },
 {
   "FarmID": 32,
   "Latitude": 53.5745499876222,
   "Longitude": 6.74034328762223,
   "Date": "23/10/2017",
   "Contamination": false
 },
 {
   "FarmID": 32,
   "Latitude": 53.5745499876222,
   "Longitude": 6.74034328762223,
   "Date": "23/02/2018",
   "Contamination": false
 },
 {
   "FarmID": 32,
   "Latitude": 53.5745499876222,
   "Longitude": 6.74034328762223,
   "Date": "26/06/2018",
   "Contamination": false
 },
 {
   "FarmID": 32,
   "Latitude": 53.5745499876222,
   "Longitude": 6.74034328762223,
   "Date": "03/10/2018",
   "Contamination": false
 },
 {
   "FarmID": 32,
   "Latitude": 53.5745499876222,
   "Longitude": 6.74034328762223,
   "Date": "15/02/2019",
   "Contamination": false
 },
 {
   "FarmID": 32,
   "Latitude": 53.5745499876222,
   "Longitude": 6.74034328762223,
   "Date": "09/06/2019",
   "Contamination": false
 },
 {
   "FarmID": 33,
   "Latitude": 53.5307540876222,
   "Longitude": 6.83400648155301,
   "Date": "22/10/2017",
   "Contamination": false
 },
 {
   "FarmID": 33,
   "Latitude": 53.5307540876222,
   "Longitude": 6.83400648155301,
   "Date": "04/02/2018",
   "Contamination": false
 },
 {
   "FarmID": 33,
   "Latitude": 53.5307540876222,
   "Longitude": 6.83400648155301,
   "Date": "04/07/2018",
   "Contamination": false
 },
 {
   "FarmID": 33,
   "Latitude": 53.5307540876222,
   "Longitude": 6.83400648155301,
   "Date": "08/10/2018",
   "Contamination": false
 },
 {
   "FarmID": 33,
   "Latitude": 53.5307540876222,
   "Longitude": 6.83400648155301,
   "Date": "05/02/2019",
   "Contamination": false
 },
 {
   "FarmID": 33,
   "Latitude": 53.5307540876222,
   "Longitude": 6.83400648155301,
   "Date": "05/06/2019",
   "Contamination": false
 },
 {
   "FarmID": 34,
   "Latitude": 53.4857810876222,
   "Longitude": 6.70015713210925,
   "Date": "22/10/2017",
   "Contamination": false
 },
 {
   "FarmID": 34,
   "Latitude": 53.4857810876222,
   "Longitude": 6.70015713210925,
   "Date": "25/02/2018",
   "Contamination": false
 },
 {
   "FarmID": 34,
   "Latitude": 53.4857810876222,
   "Longitude": 6.70015713210925,
   "Date": "04/07/2018",
   "Contamination": false
 },
 {
   "FarmID": 34,
   "Latitude": 53.4857810876222,
   "Longitude": 6.70015713210925,
   "Date": "14/10/2018",
   "Contamination": false
 },
 {
   "FarmID": 34,
   "Latitude": 53.4857810876222,
   "Longitude": 6.70015713210925,
   "Date": "05/02/2019",
   "Contamination": true
 },
 {
   "FarmID": 34,
   "Latitude": 53.4857810876222,
   "Longitude": 6.70015713210925,
   "Date": "05/06/2019",
   "Contamination": false
 },
 {
   "FarmID": 35,
   "Latitude": 53.4164825876222,
   "Longitude": 6.99344478762223,
   "Date": "10/10/2017",
   "Contamination": false
 },
 {
   "FarmID": 35,
   "Latitude": 53.4164825876222,
   "Longitude": 6.99344478762223,
   "Date": "14/02/2018",
   "Contamination": false
 },
 {
   "FarmID": 35,
   "Latitude": 53.4164825876222,
   "Longitude": 6.99344478762223,
   "Date": "10/07/2018",
   "Contamination": false
 },
 {
   "FarmID": 35,
   "Latitude": 53.4164825876222,
   "Longitude": 6.99344478762223,
   "Date": "20/10/2018",
   "Contamination": false
 },
 {
   "FarmID": 35,
   "Latitude": 53.4164825876222,
   "Longitude": 6.99344478762223,
   "Date": "20/02/2019",
   "Contamination": false
 },
 {
   "FarmID": 35,
   "Latitude": 53.4164825876222,
   "Longitude": 6.99344478762223,
   "Date": "06/06/2019",
   "Contamination": false
 },
 {
   "FarmID": 35,
   "Latitude": 53.4164825876222,
   "Longitude": 6.99344478762223,
   "Date": "24/06/2017",
   "Contamination": false
 },
 {
   "FarmID": 35,
   "Latitude": 53.4164825876222,
   "Longitude": 6.99344478762223,
   "Date": "10/10/2017",
   "Contamination": false
 },
 {
   "FarmID": 35,
   "Latitude": 53.4164825876222,
   "Longitude": 6.99344478762223,
   "Date": "14/02/2018",
   "Contamination": false
 },
 {
   "FarmID": 35,
   "Latitude": 53.4164825876222,
   "Longitude": 6.99344478762223,
   "Date": "10/07/2018",
   "Contamination": false
 },
 {
   "FarmID": 35,
   "Latitude": 53.4164825876222,
   "Longitude": 6.99344478762223,
   "Date": "20/10/2018",
   "Contamination": false
 },
 {
   "FarmID": 35,
   "Latitude": 53.4164825876222,
   "Longitude": 6.99344478762223,
   "Date": "20/02/2019",
   "Contamination": false
 },
 {
   "FarmID": 36,
   "Latitude": 53.5307540876222,
   "Longitude": 6.83400648155301,
   "Date": "19/10/2017",
   "Contamination": false
 },
 {
   "FarmID": 36,
   "Latitude": 53.5307540876222,
   "Longitude": 6.83400648155301,
   "Date": "16/02/2018",
   "Contamination": false
 },
 {
   "FarmID": 36,
   "Latitude": 53.5307540876222,
   "Longitude": 6.83400648155301,
   "Date": "04/07/2018",
   "Contamination": false
 },
 {
   "FarmID": 36,
   "Latitude": 53.5307540876222,
   "Longitude": 6.83400648155301,
   "Date": "08/10/2018",
   "Contamination": false
 },
 {
   "FarmID": 36,
   "Latitude": 53.5307540876222,
   "Longitude": 6.83400648155301,
   "Date": "05/02/2019",
   "Contamination": false
 },
 {
   "FarmID": 36,
   "Latitude": 53.5307540876222,
   "Longitude": 6.83400648155301,
   "Date": "05/06/2019",
   "Contamination": false
 },
 {
   "FarmID": 37,
   "Latitude": 53.5030351376222,
   "Longitude": 6.88577269559506,
   "Date": "22/10/2017",
   "Contamination": false
 },
 {
   "FarmID": 37,
   "Latitude": 53.5030351376222,
   "Longitude": 6.88577269559506,
   "Date": "04/02/2018",
   "Contamination": false
 },
 {
   "FarmID": 37,
   "Latitude": 53.5030351376222,
   "Longitude": 6.88577269559506,
   "Date": "04/07/2018",
   "Contamination": false
 },
 {
   "FarmID": 37,
   "Latitude": 53.5030351376222,
   "Longitude": 6.88577269559506,
   "Date": "08/10/2018",
   "Contamination": false
 },
 {
   "FarmID": 37,
   "Latitude": 53.5030351376222,
   "Longitude": 6.88577269559506,
   "Date": "05/02/2019",
   "Contamination": false
 },
 {
   "FarmID": 37,
   "Latitude": 53.5030351376222,
   "Longitude": 6.88577269559506,
   "Date": "05/06/2019",
   "Contamination": false
 },
 {
   "FarmID": 38,
   "Latitude": 53.5063262876222,
   "Longitude": 6.91826578762223,
   "Date": "19/10/2017",
   "Contamination": true
 },
 {
   "FarmID": 38,
   "Latitude": 53.5063262876222,
   "Longitude": 6.91826578762223,
   "Date": "19/02/2018",
   "Contamination": true
 },
 {
   "FarmID": 38,
   "Latitude": 53.5063262876222,
   "Longitude": 6.91826578762223,
   "Date": "04/07/2018",
   "Contamination": false
 },
 {
   "FarmID": 38,
   "Latitude": 53.5063262876222,
   "Longitude": 6.91826578762223,
   "Date": "14/10/2018",
   "Contamination": false
 },
 {
   "FarmID": 38,
   "Latitude": 53.5063262876222,
   "Longitude": 6.91826578762223,
   "Date": "05/02/2019",
   "Contamination": false
 },
 {
   "FarmID": 38,
   "Latitude": 53.5063262876222,
   "Longitude": 6.91826578762223,
   "Date": "11/06/2019",
   "Contamination": false
 },
 {
   "FarmID": 39,
   "Latitude": 53.6053911876222,
   "Longitude": 6.79510608762223,
   "Date": "14/06/2017",
   "Contamination": true
 },
 {
   "FarmID": 39,
   "Latitude": 53.6053911876222,
   "Longitude": 6.79510608762223,
   "Date": "09/10/2017",
   "Contamination": true
 },
 {
   "FarmID": 39,
   "Latitude": 53.6053911876222,
   "Longitude": 6.79510608762223,
   "Date": "21/02/2018",
   "Contamination": false
 },
 {
   "FarmID": 39,
   "Latitude": 53.6053911876222,
   "Longitude": 6.79510608762223,
   "Date": "06/07/2018",
   "Contamination": false
 },
 {
   "FarmID": 39,
   "Latitude": 53.6053911876222,
   "Longitude": 6.79510608762223,
   "Date": "22/10/2018",
   "Contamination": false
 },
 {
   "FarmID": 39,
   "Latitude": 53.6053911876222,
   "Longitude": 6.79510608762223,
   "Date": "25/02/2019",
   "Contamination": false
 },
 {
   "FarmID": 40,
   "Latitude": 53.5046552876222,
   "Longitude": 6.94248198762223,
   "Date": "22/10/2017",
   "Contamination": false
 },
 {
   "FarmID": 40,
   "Latitude": 53.5046552876222,
   "Longitude": 6.94248198762223,
   "Date": "04/02/2018",
   "Contamination": false
 },
 {
   "FarmID": 40,
   "Latitude": 53.5046552876222,
   "Longitude": 6.94248198762223,
   "Date": "04/07/2018",
   "Contamination": true
 },
 {
   "FarmID": 40,
   "Latitude": 53.5046552876222,
   "Longitude": 6.94248198762223,
   "Date": "08/10/2018",
   "Contamination": false
 },
 {
   "FarmID": 40,
   "Latitude": 53.5046552876222,
   "Longitude": 6.94248198762223,
   "Date": "08/02/2019",
   "Contamination": true
 },
 {
   "FarmID": 40,
   "Latitude": 53.5046552876222,
   "Longitude": 6.94248198762223,
   "Date": "11/06/2019",
   "Contamination": false
 },
 {
   "FarmID": 41,
   "Latitude": 53.5922047876222,
   "Longitude": 6.83078278762223,
   "Date": "10/10/2017",
   "Contamination": false
 },
 {
   "FarmID": 41,
   "Latitude": 53.5922047876222,
   "Longitude": 6.83078278762223,
   "Date": "21/02/2018",
   "Contamination": false
 },
 {
   "FarmID": 41,
   "Latitude": 53.5922047876222,
   "Longitude": 6.83078278762223,
   "Date": "27/06/2018",
   "Contamination": false
 },
 {
   "FarmID": 41,
   "Latitude": 53.5922047876222,
   "Longitude": 6.83078278762223,
   "Date": "13/10/2018",
   "Contamination": false
 },
 {
   "FarmID": 41,
   "Latitude": 53.5922047876222,
   "Longitude": 6.83078278762223,
   "Date": "19/02/2019",
   "Contamination": false
 },
 {
   "FarmID": 41,
   "Latitude": 53.5922047876222,
   "Longitude": 6.83078278762223,
   "Date": "05/06/2019",
   "Contamination": false
 },
 {
   "FarmID": 42,
   "Latitude": 53.5654014876222,
   "Longitude": 6.84095608762223,
   "Date": "19/10/2017",
   "Contamination": true
 },
 {
   "FarmID": 42,
   "Latitude": 53.5654014876222,
   "Longitude": 6.84095608762223,
   "Date": "08/02/2018",
   "Contamination": false
 },
 {
   "FarmID": 42,
   "Latitude": 53.5654014876222,
   "Longitude": 6.84095608762223,
   "Date": "17/07/2018",
   "Contamination": false
 },
 {
   "FarmID": 42,
   "Latitude": 53.5654014876222,
   "Longitude": 6.84095608762223,
   "Date": "12/10/2018",
   "Contamination": false
 },
 {
   "FarmID": 42,
   "Latitude": 53.5654014876222,
   "Longitude": 6.84095608762223,
   "Date": "10/02/2019",
   "Contamination": false
 },
 {
   "FarmID": 42,
   "Latitude": 53.5654014876222,
   "Longitude": 6.84095608762223,
   "Date": "06/06/2019",
   "Contamination": false
 },
 {
   "FarmID": 43,
   "Latitude": 53.5192005876222,
   "Longitude": 6.91139108762223,
   "Date": "19/10/2017",
   "Contamination": false
 },
 {
   "FarmID": 43,
   "Latitude": 53.5192005876222,
   "Longitude": 6.91139108762223,
   "Date": "25/02/2018",
   "Contamination": false
 },
 {
   "FarmID": 43,
   "Latitude": 53.5192005876222,
   "Longitude": 6.91139108762223,
   "Date": "04/07/2018",
   "Contamination": false
 },
 {
   "FarmID": 43,
   "Latitude": 53.5192005876222,
   "Longitude": 6.91139108762223,
   "Date": "14/10/2018",
   "Contamination": false
 },
 {
   "FarmID": 43,
   "Latitude": 53.5192005876222,
   "Longitude": 6.91139108762223,
   "Date": "05/02/2019",
   "Contamination": false
 },
 {
   "FarmID": 43,
   "Latitude": 53.5192005876222,
   "Longitude": 6.91139108762223,
   "Date": "05/06/2019",
   "Contamination": false
 },
 {
   "FarmID": 44,
   "Latitude": 53.5146504876222,
   "Longitude": 6.79792838762223,
   "Date": "22/10/2017",
   "Contamination": false
 },
 {
   "FarmID": 44,
   "Latitude": 53.5146504876222,
   "Longitude": 6.79792838762223,
   "Date": "25/02/2018",
   "Contamination": false
 },
 {
   "FarmID": 44,
   "Latitude": 53.5146504876222,
   "Longitude": 6.79792838762223,
   "Date": "04/07/2018",
   "Contamination": false
 },
 {
   "FarmID": 44,
   "Latitude": 53.5146504876222,
   "Longitude": 6.79792838762223,
   "Date": "14/10/2018",
   "Contamination": false
 },
 {
   "FarmID": 44,
   "Latitude": 53.5146504876222,
   "Longitude": 6.79792838762223,
   "Date": "08/02/2019",
   "Contamination": false
 },
 {
   "FarmID": 44,
   "Latitude": 53.5146504876222,
   "Longitude": 6.79792838762223,
   "Date": "05/06/2019",
   "Contamination": false
 },
 {
   "FarmID": 45,
   "Latitude": 53.5157335876222,
   "Longitude": 7.00864358762223,
   "Date": "08/06/2017",
   "Contamination": false
 },
 {
   "FarmID": 45,
   "Latitude": 53.5157335876222,
   "Longitude": 7.00864358762223,
   "Date": "20/10/2017",
   "Contamination": false
 },
 {
   "FarmID": 45,
   "Latitude": 53.5157335876222,
   "Longitude": 7.00864358762223,
   "Date": "02/02/2018",
   "Contamination": false
 },
 {
   "FarmID": 45,
   "Latitude": 53.5157335876222,
   "Longitude": 7.00864358762223,
   "Date": "26/06/2018",
   "Contamination": false
 },
 {
   "FarmID": 45,
   "Latitude": 53.5157335876222,
   "Longitude": 7.00864358762223,
   "Date": "15/10/2018",
   "Contamination": false
 },
 {
   "FarmID": 45,
   "Latitude": 53.5157335876222,
   "Longitude": 7.00864358762223,
   "Date": "25/02/2019",
   "Contamination": false
 },
 {
   "FarmID": 46,
   "Latitude": 53.4938820876222,
   "Longitude": 6.90513738762223,
   "Date": "22/10/2017",
   "Contamination": true
 },
 {
   "FarmID": 46,
   "Latitude": 53.4938820876222,
   "Longitude": 6.90513738762223,
   "Date": "04/02/2018",
   "Contamination": true
 },
 {
   "FarmID": 46,
   "Latitude": 53.4938820876222,
   "Longitude": 6.90513738762223,
   "Date": "04/07/2018",
   "Contamination": false
 },
 {
   "FarmID": 46,
   "Latitude": 53.4938820876222,
   "Longitude": 6.90513738762223,
   "Date": "08/10/2018",
   "Contamination": false
 },
 {
   "FarmID": 46,
   "Latitude": 53.4938820876222,
   "Longitude": 6.90513738762223,
   "Date": "08/02/2019",
   "Contamination": false
 },
 {
   "FarmID": 46,
   "Latitude": 53.4938820876222,
   "Longitude": 6.90513738762223,
   "Date": "11/06/2019",
   "Contamination": false
 },
 {
   "FarmID": 47,
   "Latitude": 53.4898131876222,
   "Longitude": 6.94951568762223,
   "Date": "26/10/2017",
   "Contamination": false
 },
 {
   "FarmID": 47,
   "Latitude": 53.4898131876222,
   "Longitude": 6.94951568762223,
   "Date": "14/02/2018",
   "Contamination": false
 },
 {
   "FarmID": 47,
   "Latitude": 53.4898131876222,
   "Longitude": 6.94951568762223,
   "Date": "08/07/2018",
   "Contamination": false
 },
 {
   "FarmID": 47,
   "Latitude": 53.4898131876222,
   "Longitude": 6.94951568762223,
   "Date": "21/10/2018",
   "Contamination": false
 },
 {
   "FarmID": 47,
   "Latitude": 53.4898131876222,
   "Longitude": 6.94951568762223,
   "Date": "21/02/2019",
   "Contamination": false
 },
 {
   "FarmID": 47,
   "Latitude": 53.4898131876222,
   "Longitude": 6.94951568762223,
   "Date": "06/06/2019",
   "Contamination": false
 },
 {
   "FarmID": 47,
   "Latitude": 53.4898131876222,
   "Longitude": 6.94951568762223,
   "Date": "16/06/2017",
   "Contamination": false
 },
 {
   "FarmID": 47,
   "Latitude": 53.4898131876222,
   "Longitude": 6.94951568762223,
   "Date": "26/10/2017",
   "Contamination": false
 },
 {
   "FarmID": 47,
   "Latitude": 53.4898131876222,
   "Longitude": 6.94951568762223,
   "Date": "14/02/2018",
   "Contamination": false
 },
 {
   "FarmID": 47,
   "Latitude": 53.4898131876222,
   "Longitude": 6.94951568762223,
   "Date": "08/07/2018",
   "Contamination": false
 },
 {
   "FarmID": 47,
   "Latitude": 53.4898131876222,
   "Longitude": 6.94951568762223,
   "Date": "21/10/2018",
   "Contamination": false
 },
 {
   "FarmID": 47,
   "Latitude": 53.4898131876222,
   "Longitude": 6.94951568762223,
   "Date": "21/02/2019",
   "Contamination": false
 },
 {
   "FarmID": 48,
   "Latitude": 53.5133643876222,
   "Longitude": 6.96947538762223,
   "Date": "04/06/2017",
   "Contamination": false
 },
 {
   "FarmID": 48,
   "Latitude": 53.5133643876222,
   "Longitude": 6.96947538762223,
   "Date": "20/10/2017",
   "Contamination": false
 },
 {
   "FarmID": 48,
   "Latitude": 53.5133643876222,
   "Longitude": 6.96947538762223,
   "Date": "03/02/2018",
   "Contamination": false
 },
 {
   "FarmID": 48,
   "Latitude": 53.5133643876222,
   "Longitude": 6.96947538762223,
   "Date": "23/06/2018",
   "Contamination": false
 },
 {
   "FarmID": 48,
   "Latitude": 53.5133643876222,
   "Longitude": 6.96947538762223,
   "Date": "13/10/2018",
   "Contamination": false
 },
 {
   "FarmID": 48,
   "Latitude": 53.5133643876222,
   "Longitude": 6.96947538762223,
   "Date": "26/02/2019",
   "Contamination": false
 },
 {
   "FarmID": 49,
   "Latitude": 53.5825071876222,
   "Longitude": 6.74458728762223,
   "Date": "23/06/2017",
   "Contamination": false
 },
 {
   "FarmID": 49,
   "Latitude": 53.5825071876222,
   "Longitude": 6.74458728762223,
   "Date": "15/10/2017",
   "Contamination": false
 },
 {
   "FarmID": 49,
   "Latitude": 53.5825071876222,
   "Longitude": 6.74458728762223,
   "Date": "21/02/2018",
   "Contamination": false
 },
 {
   "FarmID": 49,
   "Latitude": 53.5825071876222,
   "Longitude": 6.74458728762223,
   "Date": "06/07/2018",
   "Contamination": false
 },
 {
   "FarmID": 49,
   "Latitude": 53.5825071876222,
   "Longitude": 6.74458728762223,
   "Date": "13/10/2018",
   "Contamination": false
 },
 {
   "FarmID": 49,
   "Latitude": 53.5825071876222,
   "Longitude": 6.74458728762223,
   "Date": "25/02/2019",
   "Contamination": false
 },
 {
   "FarmID": 50,
   "Latitude": 53.5800737876222,
   "Longitude": 6.91096618762223,
   "Date": "20/10/2017",
   "Contamination": false
 },
 {
   "FarmID": 50,
   "Latitude": 53.5800737876222,
   "Longitude": 6.91096618762223,
   "Date": "21/02/2018",
   "Contamination": false
 },
 {
   "FarmID": 50,
   "Latitude": 53.5800737876222,
   "Longitude": 6.91096618762223,
   "Date": "06/07/2018",
   "Contamination": false
 },
 {
   "FarmID": 50,
   "Latitude": 53.5800737876222,
   "Longitude": 6.91096618762223,
   "Date": "13/10/2018",
   "Contamination": false
 },
 {
   "FarmID": 50,
   "Latitude": 53.5800737876222,
   "Longitude": 6.91096618762223,
   "Date": "18/02/2019",
   "Contamination": false
 },
 {
   "FarmID": 50,
   "Latitude": 53.5800737876222,
   "Longitude": 6.91096618762223,
   "Date": "08/06/2019",
   "Contamination": false
 },
 {
   "FarmID": 51,
   "Latitude": 53.5842351876222,
   "Longitude": 7.03630274898671,
   "Date": "22/10/2017",
   "Contamination": false
 },
 {
   "FarmID": 51,
   "Latitude": 53.5842351876222,
   "Longitude": 7.03630274898671,
   "Date": "16/02/2018",
   "Contamination": false
 },
 {
   "FarmID": 51,
   "Latitude": 53.5842351876222,
   "Longitude": 7.03630274898671,
   "Date": "22/06/2018",
   "Contamination": false
 },
 {
   "FarmID": 51,
   "Latitude": 53.5842351876222,
   "Longitude": 7.03630274898671,
   "Date": "14/10/2018",
   "Contamination": false
 },
 {
   "FarmID": 51,
   "Latitude": 53.5842351876222,
   "Longitude": 7.03630274898671,
   "Date": "05/02/2019",
   "Contamination": false
 },
 {
   "FarmID": 51,
   "Latitude": 53.5842351876222,
   "Longitude": 7.03630274898671,
   "Date": "05/06/2019",
   "Contamination": false
 },
 {
   "FarmID": 52,
   "Latitude": 53.5659015876222,
   "Longitude": 6.87805278762223,
   "Date": "14/06/2017",
   "Contamination": false
 },
 {
   "FarmID": 52,
   "Latitude": 53.5659015876222,
   "Longitude": 6.87805278762223,
   "Date": "09/10/2017",
   "Contamination": false
 },
 {
   "FarmID": 52,
   "Latitude": 53.5659015876222,
   "Longitude": 6.87805278762223,
   "Date": "21/02/2018",
   "Contamination": false
 },
 {
   "FarmID": 52,
   "Latitude": 53.5659015876222,
   "Longitude": 6.87805278762223,
   "Date": "06/07/2018",
   "Contamination": false
 },
 {
   "FarmID": 52,
   "Latitude": 53.5659015876222,
   "Longitude": 6.87805278762223,
   "Date": "22/10/2018",
   "Contamination": false
 },
 {
   "FarmID": 52,
   "Latitude": 53.5659015876222,
   "Longitude": 6.87805278762223,
   "Date": "25/02/2019",
   "Contamination": false
 },
 {
   "FarmID": 53,
   "Latitude": 53.4771021876222,
   "Longitude": 6.88176098762223,
   "Date": "22/10/2017",
   "Contamination": false
 },
 {
   "FarmID": 53,
   "Latitude": 53.4771021876222,
   "Longitude": 6.88176098762223,
   "Date": "04/02/2018",
   "Contamination": false
 },
 {
   "FarmID": 53,
   "Latitude": 53.4771021876222,
   "Longitude": 6.88176098762223,
   "Date": "04/07/2018",
   "Contamination": false
 },
 {
   "FarmID": 53,
   "Latitude": 53.4771021876222,
   "Longitude": 6.88176098762223,
   "Date": "08/10/2018",
   "Contamination": false
 },
 {
   "FarmID": 53,
   "Latitude": 53.4771021876222,
   "Longitude": 6.88176098762223,
   "Date": "05/02/2019",
   "Contamination": false
 },
 {
   "FarmID": 53,
   "Latitude": 53.4771021876222,
   "Longitude": 6.88176098762223,
   "Date": "05/06/2019",
   "Contamination": false
 },
 {
   "FarmID": 54,
   "Latitude": 53.4840677876222,
   "Longitude": 6.97043328762223,
   "Date": "22/10/2017",
   "Contamination": false
 },
 {
   "FarmID": 54,
   "Latitude": 53.4840677876222,
   "Longitude": 6.97043328762223,
   "Date": "14/02/2018",
   "Contamination": false
 },
 {
   "FarmID": 54,
   "Latitude": 53.4840677876222,
   "Longitude": 6.97043328762223,
   "Date": "10/07/2018",
   "Contamination": false
 },
 {
   "FarmID": 54,
   "Latitude": 53.4840677876222,
   "Longitude": 6.97043328762223,
   "Date": "20/10/2018",
   "Contamination": false
 },
 {
   "FarmID": 54,
   "Latitude": 53.4840677876222,
   "Longitude": 6.97043328762223,
   "Date": "20/02/2019",
   "Contamination": true
 },
 {
   "FarmID": 54,
   "Latitude": 53.4840677876222,
   "Longitude": 6.97043328762223,
   "Date": "06/06/2019",
   "Contamination": false
 },
 {
   "FarmID": 54,
   "Latitude": 53.4840677876222,
   "Longitude": 6.97043328762223,
   "Date": "15/06/2017",
   "Contamination": false
 },
 {
   "FarmID": 54,
   "Latitude": 53.4840677876222,
   "Longitude": 6.97043328762223,
   "Date": "22/10/2017",
   "Contamination": false
 },
 {
   "FarmID": 54,
   "Latitude": 53.4840677876222,
   "Longitude": 6.97043328762223,
   "Date": "14/02/2018",
   "Contamination": false
 },
 {
   "FarmID": 54,
   "Latitude": 53.4840677876222,
   "Longitude": 6.97043328762223,
   "Date": "10/07/2018",
   "Contamination": false
 },
 {
   "FarmID": 54,
   "Latitude": 53.4840677876222,
   "Longitude": 6.97043328762223,
   "Date": "20/10/2018",
   "Contamination": false
 },
 {
   "FarmID": 54,
   "Latitude": 53.4840677876222,
   "Longitude": 6.97043328762223,
   "Date": "20/02/2019",
   "Contamination": true
 },
 {
   "FarmID": 55,
   "Latitude": 53.5334039876222,
   "Longitude": 7.03253588762223,
   "Date": "14/06/2017",
   "Contamination": false
 },
 {
   "FarmID": 55,
   "Latitude": 53.5334039876222,
   "Longitude": 7.03253588762223,
   "Date": "06/10/2017",
   "Contamination": false
 },
 {
   "FarmID": 55,
   "Latitude": 53.5334039876222,
   "Longitude": 7.03253588762223,
   "Date": "12/02/2018",
   "Contamination": false
 },
 {
   "FarmID": 55,
   "Latitude": 53.5334039876222,
   "Longitude": 7.03253588762223,
   "Date": "27/06/2018",
   "Contamination": false
 },
 {
   "FarmID": 55,
   "Latitude": 53.5334039876222,
   "Longitude": 7.03253588762223,
   "Date": "13/10/2018",
   "Contamination": false
 },
 {
   "FarmID": 55,
   "Latitude": 53.5334039876222,
   "Longitude": 7.03253588762223,
   "Date": "23/02/2019",
   "Contamination": false
 },
 {
   "FarmID": 56,
   "Latitude": 53.5248466876222,
   "Longitude": 6.88003388762223,
   "Date": "19/10/2017",
   "Contamination": false
 },
 {
   "FarmID": 56,
   "Latitude": 53.5248466876222,
   "Longitude": 6.88003388762223,
   "Date": "16/02/2018",
   "Contamination": false
 },
 {
   "FarmID": 56,
   "Latitude": 53.5248466876222,
   "Longitude": 6.88003388762223,
   "Date": "04/07/2018",
   "Contamination": false
 },
 {
   "FarmID": 56,
   "Latitude": 53.5248466876222,
   "Longitude": 6.88003388762223,
   "Date": "14/10/2018",
   "Contamination": false
 },
 {
   "FarmID": 56,
   "Latitude": 53.5248466876222,
   "Longitude": 6.88003388762223,
   "Date": "08/02/2019",
   "Contamination": true
 },
 {
   "FarmID": 56,
   "Latitude": 53.5248466876222,
   "Longitude": 6.88003388762223,
   "Date": "05/06/2019",
   "Contamination": true
 },
 {
   "FarmID": 57,
   "Latitude": 53.4819599876222,
   "Longitude": 6.90173758762223,
   "Date": "22/10/2017",
   "Contamination": false
 },
 {
   "FarmID": 57,
   "Latitude": 53.4819599876222,
   "Longitude": 6.90173758762223,
   "Date": "16/02/2018",
   "Contamination": true
 },
 {
   "FarmID": 57,
   "Latitude": 53.4819599876222,
   "Longitude": 6.90173758762223,
   "Date": "04/07/2018",
   "Contamination": false
 },
 {
   "FarmID": 57,
   "Latitude": 53.4819599876222,
   "Longitude": 6.90173758762223,
   "Date": "08/10/2018",
   "Contamination": false
 },
 {
   "FarmID": 57,
   "Latitude": 53.4819599876222,
   "Longitude": 6.90173758762223,
   "Date": "05/02/2019",
   "Contamination": false
 },
 {
   "FarmID": 57,
   "Latitude": 53.4819599876222,
   "Longitude": 6.90173758762223,
   "Date": "05/06/2019",
   "Contamination": false
 },
 {
   "FarmID": 58,
   "Latitude": 53.4903029876222,
   "Longitude": 6.85124158762223,
   "Date": "21/06/2017",
   "Contamination": true
 },
 {
   "FarmID": 58,
   "Latitude": 53.4903029876222,
   "Longitude": 6.85124158762223,
   "Date": "22/10/2017",
   "Contamination": true
 },
 {
   "FarmID": 58,
   "Latitude": 53.4903029876222,
   "Longitude": 6.85124158762223,
   "Date": "19/02/2018",
   "Contamination": false
 },
 {
   "FarmID": 58,
   "Latitude": 53.4903029876222,
   "Longitude": 6.85124158762223,
   "Date": "10/07/2018",
   "Contamination": false
 },
 {
   "FarmID": 58,
   "Latitude": 53.4903029876222,
   "Longitude": 6.85124158762223,
   "Date": "23/10/2018",
   "Contamination": false
 },
 {
   "FarmID": 58,
   "Latitude": 53.4903029876222,
   "Longitude": 6.85124158762223,
   "Date": "20/02/2019",
   "Contamination": false
 }
]